{
    "editor.multiCursorModifier": "ctrlCmd",
    "editor.snippetSuggestions": "top",
    "editor.minimap.enabled": false,
    "editor.autoIndent": "full",
    "editor.tabSize": 2,
    "editor.fontSize": 14,
    "bashBeautify.tabSize": 2,
    "window.zoomLevel": 0,
    "window.titleBarStyle": "custom",
    "window.menuBarVisibility": "default",
    "workbench.sideBar.location": "left",
    "workbench.colorTheme": "Monokai",
    "explorer.confirmDragAndDrop": false,
    "explorer.confirmDelete": false,
    "python.linting.enabled": true,
    "python.formatting.provider": "autopep8",
    "python.pythonPath": "python2",
    "latex-workshop.message.update.show": true,
    "latex-workshop.view.pdf.viewer": "tab",
    "diffEditor.ignoreTrimWhitespace": false,
    "files.insertFinalNewline": true,
    "files.trimTrailingWhitespace": true,
    "files.associations": {
        "*.do": "tcl",
        "*.svh": "systemverilog",
        "*.mpf": "log",
        "*.script": "shellscript",
        "*.inc": "shellscript",
        "*.bb": "shellscript"
    },
    "[markdown]": {
        "editor.renderWhitespace": "boundary"
    },
    "[yaml]": {
        "files.insertFinalNewline": false
    },
    "[c]": {
        "editor.formatOnPaste": true,
        "editor.formatOnSave": true
    },
    "[cpp]": {
        "editor.formatOnPaste": true,
        "editor.formatOnSave": true
    },
    "[makefile]": {
        "editor.insertSpaces": false
    },

    "C_Cpp.intelliSenseCachePath": "/home/mwurm",
    "gitlens.views.repositories.enabled": false,
    "gitlens.views.fileHistory.enabled": false,
    "gitlens.views.lineHistory.enabled": false,
    "gitlens.views.search.enabled": false,
    "gitlens.views.compare.enabled": false,
    "gitlens.codeLens.enabled": false,
}
